<?xml version="1.0" encoding="UTF-8"?>
<svg width="128px" height="128px" viewBox="0 0 128 128" version="1.1" xmlns="http://www.w3.org/2000/svg" xmlns:xlink="http://www.w3.org/1999/xlink">
    <!-- Generator: Sketch 43.2 (39069) - http://www.bohemiancoding.com/sketch -->
    <title>Artboard</title>
    <desc>Created with Sketch.</desc>
    <defs></defs>
    <g id="Page-1" stroke="none" stroke-width="1" fill="none" fill-rule="evenodd">
        <g id="Artboard">
            <g id="egg">
                <circle id="Oval" stroke="#EA4E3A" fill="#FFFFFF" fill-rule="nonzero" cx="64" cy="64" r="51.2"></circle>
                <g id="Rectangle-7">
                    <g id="path-2-link" fill="#FFFFFF">
                        <rect id="path-2" x="0" y="0" width="128" height="128" rx="4"></rect>
                    </g>
                    <rect id="Rectangle-path" stroke="#3CAE4D" stroke-width="8" x="3.2" y="3.2" width="121.6" height="121.6" rx="20"></rect>
                </g>
                <circle id="Oval" fill="#3CAE4D" fill-rule="nonzero" cx="64.0000004" cy="64.0000004" r="25.6000004"></circle>
            </g>
        </g>
    </g>
</svg>